…
From this, you can see that there’s one bin (of a width of 5 years) that
looks to be in the 1860s with way more pieces than the rest, which
wasn’t present when I plotted these dates before cleaning them up. My
hunch is that this is a time frame during the Civil War, which, as
previously noted, a lot of this museum’s collection centers around, and
that pieces from this time aren’t dated exactly, so many of them were
listed as “circa” whatever the time frame is, so now they’re all in the
same bin.

``` r
npg_art %>%
  count(year_cleaned, sort = TRUE)
```

    ## # A tibble: 134 x 2
    ##    year_cleaned     n
    ##           <dbl> <int>
    ##  1         1860   145
    ##  2           NA    43
    ##  3         1880    14
    ##  4         1861    11
    ##  5         1863     8
    ##  6         1864     8
    ##  7         1851     6
    ##  8         1945     6
    ##  9         1840     5
    ## 10         1862     5
    ## # ... with 124 more rows
…
